<?xml version="1.0" encoding="UTF-8"?>
<glyph name="zacute.loclPLK" format="2">
	<advance width="600"/>
	<outline>
		<component base="z"/>
		<component base="acutecomb.loclPLK" xOffset="60" yOffset="-160"/>
	</outline>
	<lib>
		<dict>
			<key>public.markColor</key>
			<string>0.67,0.95,0.38,1</string>
		</dict>
	</lib>
</glyph>
